Soil Analysis
…
    om = as.numeric(om),
    P = as.numeric(P),
    K = as.numeric(K),
    sand = as.numeric(sand),
    silt = as.numeric(silt),
    clay = as.numeric(clay),
    texture = as.factor(texture),
    soilseries = as.factor(soilseries),
    suit = as.factor(suit),
    text.code = as.factor(text.code),
    se.tex = as.factor(se.tex)
  )
database.cleaned

# A tibble: 1,964 x 15
      pH    om     P     K  sand  silt  clay texture       no     x1
   <dbl> <dbl> <dbl> <dbl> <dbl> <dbl> <dbl> <fct>      <dbl>  <dbl>
 1  6.01  2.73    35   133  46.4  33.7  19.9 loam         554 701861
 2  5.89  2.92    31   119  46.6  33.6  19.8 loam         555 701861
 3  4.54  2.85    37   102  45    31.6  23.4 loam        1019 639483
 4  4.93  1.93    15    92  50    28    22   loam        1888 521167
 5  6.51  3.05    71   142  48.5  29.5  22   loam        1475 624104
 6  6.51  3.05    71   142  48.5  29.5  22   loam        1476 624104
 7  5.44  4.07    19   107  42.4  37.6  20   loam        2030 535134
 8  5.1   0.93     9    94  78.8  13.6   7.6 loamy sand  1965 512267
 9  5.65  1.19     6    95  84    10     6   loamy sand  1977 512097
10  6.2   1.29     7    45  78    14     8   loamy sand  1978 512097
# ... with 1,954 more rows, and 5 more variables: y1 <dbl>,
#   soilseries <fct>, suit <fct>, text.code <fct>, se.tex <fct>
…
